{
  "images" : [
    {
      "idiom" : "universal",
      "filename" : "black-line-kazapsstechco-black-line-png-904_258.png",
      "scale" : "1x"
    },
    {
      "idiom" : "universal",
      "filename" : "black-line-kazapsstechco-black-line-png-904_258-1.png",
      "scale" : "2x"
    },
    {
      "idiom" : "universal",
      "filename" : "black-line-kazapsstechco-black-line-png-904_258-2.png",
      "scale" : "3x"
    }
  ],
  "info" : {
    "version" : 1,
    "author" : "xcode"
  }
}